#Command: "C:\Program Files (x86)\Microsoft Visual Studio\2019\Community\VC\Tools\MSVC\14.22.27905\bin\HostX86\x86\link.exe" /ERRORREPORT:PROMPT @C:\Users\JoshVal\AppData\Local\Temp\tmp0286d3c530a04a319151a1f7e50da55a.rsp /nologo /incremental:no /fullbuild
^C:\USERS\JOSHVAL\DESKTOP\URL\PROGRAAVPRACTICA\PROGRAAVANZADA2019\LAB0_JOSHUA_VALEY_1014416\DEBUG\.NETFRAMEWORK,VERSION=V4.5.2.ASSEMBLYATTRIBUTES.OBJ|C:\USERS\JOSHVAL\DESKTOP\URL\PROGRAAVPRACTICA\PROGRAAVANZADA2019\LAB0_JOSHUA_VALEY_1014416\DEBUG\MYFORM.OBJ
C:\USERS\JOSHVAL\DESKTOP\URL\PROGRAAVPRACTICA\PROGRAAVANZADA2019\LAB0_JOSHUA_VALEY_1014416\DEBUG\LAB0_JOSHUA_VALEY_1014416.PDB
